{"photos":{"page":1,"pages":8268,"perpage":20,"total":"165354","photo":[{"id":"33662688855","owner":"62690596@N05","secret":"d328a82d07","server":"2928","farm":3,"title":"Potrait....","ispublic":1,"isfriend":0,"isfamily":0,"url_t":"https:\/\/farm3.staticflickr.com\/2928\/33662688855_d328a82d07_t.jpg","height_t":"100","width_t":"79","url_s":"https:\/\/farm3.staticflickr.com\/2928\/33662688855_d328a82d07_m.jpg","height_s":"240","width_s":"190","url_q":"https:\/\/farm3.staticflickr.com\/2928\/33662688855_d328a82d07_q.jpg","height_q":"150","width_q":"150","url_m":"https:\/\/farm3.staticflickr.com\/2928\/33662688855_d328a82d07.jpg","height_m":"500","width_m":"395","url_n":"https:\/\/farm3.staticflickr.com\/2928\/33662688855_d328a82d07_n.jpg","height_n":"320","width_n":253,"url_z":"https:\/\/farm3.staticflickr.com\/2928\/33662688855_d328a82d07_z.jpg","height_z":"640","width_z":"506","url_c":"https:\/\/farm3.staticflickr.com\/2928\/33662688855_d328a82d07_c.jpg","height_c":"800","width_c":632,"url_l":"https:\/\/farm3.staticflickr.com\/2928\/33662688855_d328a82d07_b.jpg","height_l":"1024","width_l":"809"},{"id":"34700272333","owner":"139318969@N02","secret":"9ce38b4b5a","server":"4261","farm":5,"title":"Jennifer-12","ispublic":1,"isfriend":0,"isfamily":0,"url_t":"https:\/\/farm5.staticflickr.com\/4261\/34700272333_9ce38b4b5a_t.jpg","height_t":"92","width_t":"100","url_s":"https:\/\/farm5.staticflickr.com\/4261\/34700272333_9ce38b4b5a_m.jpg","height_s":"220","width_s":"240","url_q":"https:\/\/farm5.staticflickr.com\/4261\/34700272333_9ce38b4b5a_q.jpg","height_q":"150","width_q":"150","url_m":"https:\/\/farm5.staticflickr.com\/4261\/34700272333_9ce38b4b5a.jpg","height_m":"458","width_m":"500","url_n":"https:\/\/farm5.staticflickr.com\/4261\/34700272333_9ce38b4b5a_n.jpg","height_n":293,"width_n":"320","url_z":"https:\/\/farm5.staticflickr.com\/4261\/34700272333_9ce38b4b5a_z.jpg","height_z":"587","width_z":"640","url_c":"https:\/\/farm5.staticflickr.com\/4261\/34700272333_9ce38b4b5a_c.jpg","height_c":734,"width_c":"800","url_l":"https:\/\/farm5.staticflickr.com\/4261\/34700272333_9ce38b4b5a_b.jpg","height_l":"939","width_l":"1024"},{"id":"4970423623","owner":"32860244@N04","secret":"abe5afe97d","server":"4103","farm":5,"title":"Potrait & sunshine!","ispublic":1,"isfriend":0,"isfamily":0,"url_t":"https:\/\/farm5.staticflickr.com\/4103\/4970423623_abe5afe97d_t.jpg","height_t":"67","width_t":"100","url_s":"https:\/\/farm5.staticflickr.com\/4103\/4970423623_abe5afe97d_m.jpg","height_s":"160","width_s":"240","url_q":"https:\/\/farm5.staticflickr.com\/4103\/4970423623_abe5afe97d_q.jpg","height_q":"150","width_q":"150","url_m":"https:\/\/farm5.staticflickr.com\/4103\/4970423623_abe5afe97d.jpg","height_m":"333","width_m":"500","url_n":"https:\/\/farm5.staticflickr.com\/4103\/4970423623_abe5afe97d_n.jpg","height_n":213,"width_n":"320","url_z":"https:\/\/farm5.staticflickr.com\/4103\/4970423623_abe5afe97d_z.jpg","height_z":"426","width_z":"640","url_l":"https:\/\/farm5.staticflickr.com\/4103\/4970423623_abe5afe97d_b.jpg","height_l":"682","width_l":"1024"},{"id":"4569926006","owner":"98768112@N00","secret":"244d4bd361","server":"4064","farm":5,"title":"musing...","ispublic":1,"isfriend":0,"isfamily":0,"url_t":"https:\/\/farm5.staticflickr.com\/4064\/4569926006_244d4bd361_t.jpg","height_t":"100","width_t":"100","url_s":"https:\/\/farm5.staticflickr.com\/4064\/4569926006_244d4bd361_m.jpg","height_s":"240","width_s":"240","url_q":"https:\/\/farm5.staticflickr.com\/4064\/4569926006_244d4bd361_q.jpg","height_q":"150","width_q":"150","url_m":"https:\/\/farm5.staticflickr.com\/4064\/4569926006_244d4bd361.jpg","height_m":"500","width_m":"500","url_z":"https:\/\/farm5.staticflickr.com\/4064\/4569926006_244d4bd361_z.jpg","height_z":"640","width_z":"640"},{"id":"8653707175","owner":"8606833@N04","secret":"5339e687cb","server":"8260","farm":9,"title":"Potrait-2","ispublic":1,"isfriend":0,"isfamily":0,"url_t":"https:\/\/farm9.staticflickr.com\/8260\/8653707175_5339e687cb_t.jpg","height_t":"100","width_t":"100","url_s":"https:\/\/farm9.staticflickr.com\/8260\/8653707175_5339e687cb_m.jpg","height_s":"240","width_s":"240","url_q":"https:\/\/farm9.staticflickr.com\/8260\/8653707175_5339e687cb_q.jpg","height_q":"150","width_q":"150","url_m":"https:\/\/farm9.staticflickr.com\/8260\/8653707175_5339e687cb.jpg","height_m":"500","width_m":"500","url_n":"https:\/\/farm9.staticflickr.com\/8260\/8653707175_5339e687cb_n.jpg","height_n":320,"width_n":"320","url_z":"https:\/\/farm9.staticflickr.com\/8260\/8653707175_5339e687cb_z.jpg","height_z":"640","width_z":"640"},{"id":"35653394402","owner":"101208499@N07","secret":"87a06574aa","server":"4287","farm":5,"title":"","ispublic":1,"isfriend":0,"isfamily":0,"url_t":"https:\/\/farm5.staticflickr.com\/4287\/35653394402_87a06574aa_t.jpg","height_t":"67","width_t":"100","url_s":"https:\/\/farm5.staticflickr.com\/4287\/35653394402_87a06574aa_m.jpg","height_s":"160","width_s":"240","url_q":"https:\/\/farm5.staticflickr.com\/4287\/35653394402_87a06574aa_q.jpg","height_q":"150","width_q":"150","url_m":"https:\/\/farm5.staticflickr.com\/4287\/35653394402_87a06574aa.jpg","height_m":"333","width_m":"500","url_n":"https:\/\/farm5.staticflickr.com\/4287\/35653394402_87a06574aa_n.jpg","height_n":213,"width_n":"320","url_z":"https:\/\/farm5.staticflickr.com\/4287\/35653394402_87a06574aa_z.jpg","height_z":"427","width_z":"640","url_c":"https:\/\/farm5.staticflickr.com\/4287\/35653394402_87a06574aa_c.jpg","height_c":534,"width_c":"800","url_l":"https:\/\/farm5.staticflickr.com\/4287\/35653394402_87a06574aa_b.jpg","height_l":"683","width_l":"1024"},{"id":"4296070963","owner":"36479927@N07","secret":"c82bd54408","server":"4018","farm":5,"title":"Water Pierce Potrait","ispublic":1,"isfriend":0,"isfamily":0,"url_t":"https:\/\/farm5.staticflickr.com\/4018\/4296070963_c82bd54408_t.jpg","height_t":"100","width_t":"82","url_s":"https:\/\/farm5.staticflickr.com\/4018\/4296070963_c82bd54408_m.jpg","height_s":"240","width_s":"198","url_q":"https:\/\/farm5.staticflickr.com\/4018\/4296070963_c82bd54408_q.jpg","height_q":"150","width_q":"150","url_m":"https:\/\/farm5.staticflickr.com\/4018\/4296070963_c82bd54408.jpg","height_m":"500","width_m":"412","url_n":"https:\/\/farm5.staticflickr.com\/4018\/4296070963_c82bd54408_n.jpg","height_n":"320","width_n":264,"url_z":"https:\/\/farm5.staticflickr.com\/4018\/4296070963_c82bd54408_z.jpg","height_z":"640","width_z":528,"url_l":"https:\/\/farm5.staticflickr.com\/4018\/4296070963_c82bd54408_b.jpg","height_l":"1024","width_l":"844"},{"id":"24190386058","owner":"121744505@N06","secret":"75ed504ca4","server":"4512","farm":5,"title":"Potrait of Life","ispublic":1,"isfriend":0,"isfamily":0,"url_t":"https:\/\/farm5.staticflickr.com\/4512\/24190386058_75ed504ca4_t.jpg","height_t":"64","width_t":"100","url_s":"https:\/\/farm5.staticflickr.com\/4512\/24190386058_75ed504ca4_m.jpg","height_s":"154","width_s":"240","url_q":"https:\/\/farm5.staticflickr.com\/4512\/24190386058_75ed504ca4_q.jpg","height_q":"150","width_q":"150","url_m":"https:\/\/farm5.staticflickr.com\/4512\/24190386058_75ed504ca4.jpg","height_m":"321","width_m":"500","url_n":"https:\/\/farm5.staticflickr.com\/4512\/24190386058_75ed504ca4_n.jpg","height_n":205,"width_n":"320","url_z":"https:\/\/farm5.staticflickr.com\/4512\/24190386058_75ed504ca4_z.jpg","height_z":"411","width_z":"640","url_c":"https:\/\/farm5.staticflickr.com\/4512\/24190386058_75ed504ca4_c.jpg","height_c":513,"width_c":"800","url_l":"https:\/\/farm5.staticflickr.com\/4512\/24190386058_75ed504ca4_b.jpg","height_l":"657","width_l":"1024"},{"id":"34853909284","owner":"141661807@N06","secret":"c6961e11c0","server":"4235","farm":5,"title":"Potrait","ispublic":1,"isfriend":0,"isfamily":0,"url_t":"https:\/\/farm5.staticflickr.com\/4235\/34853909284_c6961e11c0_t.jpg","height_t":"100","width_t":"67","url_s":"https:\/\/farm5.staticflickr.com\/4235\/34853909284_c6961e11c0_m.jpg","height_s":"240","width_s":"160","url_q":"https:\/\/farm5.staticflickr.com\/4235\/34853909284_c6961e11c0_q.jpg","height_q":"150","width_q":"150","url_m":"https:\/\/farm5.staticflickr.com\/4235\/34853909284_c6961e11c0.jpg","height_m":"500","width_m":"333","url_n":"https:\/\/farm5.staticflickr.com\/4235\/34853909284_c6961e11c0_n.jpg","height_n":"320","width_n":213,"url_z":"https:\/\/farm5.staticflickr.com\/4235\/34853909284_c6961e11c0_z.jpg","height_z":"640","width_z":"426","url_c":"https:\/\/farm5.staticflickr.com\/4235\/34853909284_c6961e11c0_c.jpg","height_c":"800","width_c":533,"url_l":"https:\/\/farm5.staticflickr.com\/4235\/34853909284_c6961e11c0_b.jpg","height_l":"1024","width_l":"682"},{"id":"3663445164","owner":"25020391@N05","secret":"1daaa2da23","server":"2587","farm":3,"title":"Potraits","ispublic":1,"isfriend":0,"isfamily":0,"url_t":"https:\/\/farm3.staticflickr.com\/2587\/3663445164_1daaa2da23_t.jpg","height_t":"67","width_t":"100","url_s":"https:\/\/farm3.staticflickr.com\/2587\/3663445164_1daaa2da23_m.jpg","height_s":"160","width_s":"240","url_q":"https:\/\/farm3.staticflickr.com\/2587\/3663445164_1daaa2da23_q.jpg","height_q":"150","width_q":"150","url_m":"https:\/\/farm3.staticflickr.com\/2587\/3663445164_1daaa2da23.jpg","height_m":"333","width_m":"500","url_n":"https:\/\/farm3.staticflickr.com\/2587\/3663445164_1daaa2da23_n.jpg","height_n":213,"width_n":"320","url_z":"https:\/\/farm3.staticflickr.com\/2587\/3663445164_1daaa2da23_z.jpg","height_z":427,"width_z":"640","url_l":"https:\/\/farm3.staticflickr.com\/2587\/3663445164_1daaa2da23_b.jpg","height_l":"683","width_l":"1024"},{"id":"33474767691","owner":"62690596@N05","secret":"d5c38313f7","server":"2873","farm":3,"title":"Family Potrait","ispublic":1,"isfriend":0,"isfamily":0,"url_t":"https:\/\/farm3.staticflickr.com\/2873\/33474767691_d5c38313f7_t.jpg","height_t":"53","width_t":"100","url_s":"https:\/\/farm3.staticflickr.com\/2873\/33474767691_d5c38313f7_m.jpg","height_s":"127","width_s":"240","url_q":"https:\/\/farm3.staticflickr.com\/2873\/33474767691_d5c38313f7_q.jpg","height_q":"150","width_q":"150","url_m":"https:\/\/farm3.staticflickr.com\/2873\/33474767691_d5c38313f7.jpg","height_m":"265","width_m":"500","url_n":"https:\/\/farm3.staticflickr.com\/2873\/33474767691_d5c38313f7_n.jpg","height_n":170,"width_n":"320","url_z":"https:\/\/farm3.staticflickr.com\/2873\/33474767691_d5c38313f7_z.jpg","height_z":"339","width_z":"640","url_c":"https:\/\/farm3.staticflickr.com\/2873\/33474767691_d5c38313f7_c.jpg","height_c":424,"width_c":"800","url_l":"https:\/\/farm3.staticflickr.com\/2873\/33474767691_d5c38313f7_b.jpg","height_l":"543","width_l":"1024"},{"id":"35449438160","owner":"143396341@N04","secret":"683c96f324","server":"4231","farm":5,"title":"EOS 700D","ispublic":1,"isfriend":0,"isfamily":0,"url_t":"https:\/\/farm5.staticflickr.com\/4231\/35449438160_683c96f324_t.jpg","height_t":"67","width_t":"100","url_s":"https:\/\/farm5.staticflickr.com\/4231\/35449438160_683c96f324_m.jpg","height_s":"160","width_s":"240","url_q":"https:\/\/farm5.staticflickr.com\/4231\/35449438160_683c96f324_q.jpg","height_q":"150","width_q":"150","url_m":"https:\/\/farm5.staticflickr.com\/4231\/35449438160_683c96f324.jpg","height_m":"333","width_m":"500","url_n":"https:\/\/farm5.staticflickr.com\/4231\/35449438160_683c96f324_n.jpg","height_n":213,"width_n":"320","url_z":"https:\/\/farm5.staticflickr.com\/4231\/35449438160_683c96f324_z.jpg","height_z":"427","width_z":"640","url_c":"https:\/\/farm5.staticflickr.com\/4231\/35449438160_683c96f324_c.jpg","height_c":534,"width_c":"800","url_l":"https:\/\/farm5.staticflickr.com\/4231\/35449438160_683c96f324_b.jpg","height_l":"683","width_l":"1024"},{"id":"15597522541","owner":"99412410@N04","secret":"b396468ac9","server":"3956","farm":4,"title":"Potrait of Italy","ispublic":1,"isfriend":0,"isfamily":0,"url_t":"https:\/\/farm4.staticflickr.com\/3956\/15597522541_b396468ac9_t.jpg","height_t":"67","width_t":"100","url_s":"https:\/\/farm4.staticflickr.com\/3956\/15597522541_b396468ac9_m.jpg","height_s":"160","width_s":"240","url_q":"https:\/\/farm4.staticflickr.com\/3956\/15597522541_b396468ac9_q.jpg","height_q":"150","width_q":"150","url_m":"https:\/\/farm4.staticflickr.com\/3956\/15597522541_b396468ac9.jpg","height_m":"333","width_m":"500","url_n":"https:\/\/farm4.staticflickr.com\/3956\/15597522541_b396468ac9_n.jpg","height_n":213,"width_n":"320","url_z":"https:\/\/farm4.staticflickr.com\/3956\/15597522541_b396468ac9_z.jpg","height_z":"427","width_z":"640","url_c":"https:\/\/farm4.staticflickr.com\/3956\/15597522541_b396468ac9_c.jpg","height_c":534,"width_c":"800","url_l":"https:\/\/farm4.staticflickr.com\/3956\/15597522541_b396468ac9_b.jpg","height_l":"683","width_l":"1024"},{"id":"9568924828","owner":"98399667@N04","secret":"98d7405d95","server":"3719","farm":4,"title":"Potrait","ispublic":1,"isfriend":0,"isfamily":0,"url_t":"https:\/\/farm4.staticflickr.com\/3719\/9568924828_98d7405d95_t.jpg","height_t":"67","width_t":"100","url_s":"https:\/\/farm4.staticflickr.com\/3719\/9568924828_98d7405d95_m.jpg","height_s":"160","width_s":"240","url_q":"https:\/\/farm4.staticflickr.com\/3719\/9568924828_98d7405d95_q.jpg","height_q":"150","width_q":"150","url_m":"https:\/\/farm4.staticflickr.com\/3719\/9568924828_98d7405d95.jpg","height_m":"333","width_m":"500","url_n":"https:\/\/farm4.staticflickr.com\/3719\/9568924828_98d7405d95_n.jpg","height_n":213,"width_n":"320","url_z":"https:\/\/farm4.staticflickr.com\/3719\/9568924828_98d7405d95_z.jpg","height_z":"427","width_z":"640","url_l":"https:\/\/farm4.staticflickr.com\/3719\/9568924828_98d7405d95_b.jpg","height_l":"500","width_l":"750"},{"id":"35705090591","owner":"101208499@N07","secret":"548a994980","server":"4206","farm":5,"title":"Potrait","ispublic":1,"isfriend":0,"isfamily":0,"url_t":"https:\/\/farm5.staticflickr.com\/4206\/35705090591_548a994980_t.jpg","height_t":"88","width_t":"100","url_s":"https:\/\/farm5.staticflickr.com\/4206\/35705090591_548a994980_m.jpg","height_s":"211","width_s":"240","url_q":"https:\/\/farm5.staticflickr.com\/4206\/35705090591_548a994980_q.jpg","height_q":"150","width_q":"150","url_m":"https:\/\/farm5.staticflickr.com\/4206\/35705090591_548a994980.jpg","height_m":"439","width_m":"500","url_n":"https:\/\/farm5.staticflickr.com\/4206\/35705090591_548a994980_n.jpg","height_n":281,"width_n":"320","url_z":"https:\/\/farm5.staticflickr.com\/4206\/35705090591_548a994980_z.jpg","height_z":"562","width_z":"640","url_c":"https:\/\/farm5.staticflickr.com\/4206\/35705090591_548a994980_c.jpg","height_c":702,"width_c":"800","url_l":"https:\/\/farm5.staticflickr.com\/4206\/35705090591_548a994980_b.jpg","height_l":"899","width_l":"1024"},{"id":"6129971412","owner":"23177428@N04","secret":"c54528485b","server":"6207","farm":7,"title":"POtraiT","ispublic":1,"isfriend":0,"isfamily":0,"url_t":"https:\/\/farm7.staticflickr.com\/6207\/6129971412_c54528485b_t.jpg","height_t":"67","width_t":"100","url_s":"https:\/\/farm7.staticflickr.com\/6207\/6129971412_c54528485b_m.jpg","height_s":"160","width_s":"240","url_q":"https:\/\/farm7.staticflickr.com\/6207\/6129971412_c54528485b_q.jpg","height_q":"150","width_q":"150","url_m":"https:\/\/farm7.staticflickr.com\/6207\/6129971412_c54528485b.jpg","height_m":"333","width_m":"500","url_n":"https:\/\/farm7.staticflickr.com\/6207\/6129971412_c54528485b_n.jpg","height_n":213,"width_n":"320","url_z":"https:\/\/farm7.staticflickr.com\/6207\/6129971412_c54528485b_z.jpg","height_z":"427","width_z":"640","url_l":"https:\/\/farm7.staticflickr.com\/6207\/6129971412_c54528485b_b.jpg","height_l":"683","width_l":"1024"},{"id":"34800098940","owner":"36123916@N04","secret":"7f3d9e0fe3","server":"4262","farm":5,"title":"14284040164_3bbbc72c66_b, portrait sketch from memory: Alfred Hegel","ispublic":1,"isfriend":0,"isfamily":0,"url_t":"https:\/\/farm5.staticflickr.com\/4262\/34800098940_7f3d9e0fe3_t.jpg","height_t":"100","width_t":"67","url_s":"https:\/\/farm5.staticflickr.com\/4262\/34800098940_7f3d9e0fe3_m.jpg","height_s":"240","width_s":"160","url_q":"https:\/\/farm5.staticflickr.com\/4262\/34800098940_7f3d9e0fe3_q.jpg","height_q":"150","width_q":"150","url_m":"https:\/\/farm5.staticflickr.com\/4262\/34800098940_7f3d9e0fe3.jpg","height_m":"500","width_m":"334","url_n":"https:\/\/farm5.staticflickr.com\/4262\/34800098940_7f3d9e0fe3_n.jpg","height_n":"320","width_n":214,"url_z":"https:\/\/farm5.staticflickr.com\/4262\/34800098940_7f3d9e0fe3_z.jpg","height_z":"640","width_z":"428","url_c":"https:\/\/farm5.staticflickr.com\/4262\/34800098940_7f3d9e0fe3_c.jpg","height_c":"800","width_c":535,"url_l":"https:\/\/farm5.staticflickr.com\/4262\/34800098940_7f3d9e0fe3_b.jpg","height_l":"1024","width_l":"685"},{"id":"6683040617","owner":"55155213@N04","secret":"97e8c0f709","server":"7007","farm":8,"title":"POTRAITS 10","ispublic":1,"isfriend":0,"isfamily":0,"url_t":"https:\/\/farm8.staticflickr.com\/7007\/6683040617_97e8c0f709_t.jpg","height_t":"66","width_t":"100","url_s":"https:\/\/farm8.staticflickr.com\/7007\/6683040617_97e8c0f709_m.jpg","height_s":"159","width_s":"240","url_q":"https:\/\/farm8.staticflickr.com\/7007\/6683040617_97e8c0f709_q.jpg","height_q":"150","width_q":"150","url_m":"https:\/\/farm8.staticflickr.com\/7007\/6683040617_97e8c0f709.jpg","height_m":"332","width_m":"500","url_n":"https:\/\/farm8.staticflickr.com\/7007\/6683040617_97e8c0f709_n.jpg","height_n":213,"width_n":"320","url_z":"https:\/\/farm8.staticflickr.com\/7007\/6683040617_97e8c0f709_z.jpg","height_z":"425","width_z":"640","url_l":"https:\/\/farm8.staticflickr.com\/7007\/6683040617_97e8c0f709_b.jpg","height_l":"680","width_l":"1024"},{"id":"34120638846","owner":"136331435@N08","secret":"1844edc240","server":"2846","farm":3,"title":"Potrait-42","ispublic":1,"isfriend":0,"isfamily":0,"url_t":"https:\/\/farm3.staticflickr.com\/2846\/34120638846_1844edc240_t.jpg","height_t":"70","width_t":"100","url_s":"https:\/\/farm3.staticflickr.com\/2846\/34120638846_1844edc240_m.jpg","height_s":"168","width_s":"240","url_q":"https:\/\/farm3.staticflickr.com\/2846\/34120638846_1844edc240_q.jpg","height_q":"150","width_q":"150","url_m":"https:\/\/farm3.staticflickr.com\/2846\/34120638846_1844edc240.jpg","height_m":"351","width_m":"500","url_n":"https:\/\/farm3.staticflickr.com\/2846\/34120638846_1844edc240_n.jpg","height_n":224,"width_n":"320","url_z":"https:\/\/farm3.staticflickr.com\/2846\/34120638846_1844edc240_z.jpg","height_z":"449","width_z":"640","url_c":"https:\/\/farm3.staticflickr.com\/2846\/34120638846_1844edc240_c.jpg","height_c":561,"width_c":"800","url_l":"https:\/\/farm3.staticflickr.com\/2846\/34120638846_1844edc240_b.jpg","height_l":"718","width_l":"1024"},{"id":"3352327379","owner":"34077921@N03","secret":"2dec4b6042","server":"3451","farm":4,"title":"Potrait of Kelantan","ispublic":1,"isfriend":0,"isfamily":0,"url_t":"https:\/\/farm4.staticflickr.com\/3451\/3352327379_2dec4b6042_t.jpg","height_t":"100","width_t":"67","url_s":"https:\/\/farm4.staticflickr.com\/3451\/3352327379_2dec4b6042_m.jpg","height_s":"240","width_s":"160","url_q":"https:\/\/farm4.staticflickr.com\/3451\/3352327379_2dec4b6042_q.jpg","height_q":"150","width_q":"150","url_m":"https:\/\/farm4.staticflickr.com\/3451\/3352327379_2dec4b6042.jpg","height_m":"500","width_m":"333"}]},"stat":"ok"}
